1 1 1
1 10 20
10 1 20
100 200 125
200 11 125
201 210 89
210 201 89
900 1000 174
1000 900 174
900 901 55
200 500 144
200 600 144
600 500 137
701 701 83
701 432 145
612 613 39
384 385 33
234 234 22
1 100 119
56 45 113
54 453 144
2434 2437 134
234 512 144
9283 9283 61
2101 2101 33
602 602 18
1234 1234 133
234 234 22
123 3451 217
32452 23451 308
453 3245 217
324 127 131
867 867 29
213 987 179
1 999 179
1234 2341 183
1534 1539 154
5431 5491 192
3425 3429 57
5345 5399 192
453 2341 183
452 2341 183
8583 3451 262
2345 2399 165
4512 4235 215
2345 2345 152
12350 23450 279
1 10000 262
3425 3245 181
3221 2346 217
2344 2345 152
1023 1023 63
23485 23487 132
32452 32458 161
23412 23419 176
32451 32452 161
34821 34821 174
127958 127965 194
269099 269109 239
972306 972311 246
416753 416762 188
113613 113615 106
325239 325241 247
567517 567517 85
555336 555335 191
312087 312087 133
405095 405092 224
603012 603011 142
698509 698502 168
746130 746126 150
722922 722919 243
197489 197480 267
767316 767315 163
666009 666001 155
346836 346828 198
222908 222898 324
527086 527085 108
338740 338740 154
534466 534463 240
654373 654365 292
445452 445447 170
982300 982298 259
956187 956177 352
833244 833254 176
277002 277009 146
524450 524460 240
651227 651230 186
179754 179758 210
652280 652280 155
780769 780774 194
151442 151445 202
555469 555474 178
165390 165400 166
643860 643860 80
787793 787794 269
709332 709335 243
322354 322362 185
353939 353942 149
701737 701739 199
414217 414225 175
548777 548777 196
732072 732073 225
211027 211030 143
265501 265503 208
485493 485499 183
735765 735767 150
337359 337360 136
766819 766826 163
111174 111183 142
844652 844656 251
339114 339123 154
728669 728675 181
280488 280496 115
154029 154034 78
233196 233196 63
211930 211940 174
422882 422884 175
250646 250653 182
938601 938609 158
180126 180133 179
702449 702458 155
585930 585940 160
374936 374938 180
398447 398448 237
833580 833581 57
785921 785931 269
911750 987228 507
405856 501138 449
130189 223818 386
599856 654586 509
521225 601434 452
408006 502146 449
658651 714753 504
530849 590439 452
402453 480513 449
253302 322727 407
931026 936203 414
729127 735837 424
696028 705645 504
933001 939384 445
482137 489624 382
370864 378372 423
151324 158254 383
447363 455527 387
295036 301782 371
963002 971276 458
124181 130766 344
306183 311601 371
568444 574323 377
999999 999999 259
