1 10 20
100 200 125
201 210 89
900 1000 174
1 999 179
1 1999 182
1 999999 525
999999 1 525
674 78493 351
10 10 7
1000 1000 112
999999 999999 259
3999 4999 215
3999 5001 215
5 1 8
70000 50 340
666 666 114
91119 291699 443
959954 862688 507
263338 870508 525
284628 337889 389
431777 848592 525
218793 975000 525
638118 960341 525
950607 148283 525
429200 10930 449
129809 638470 509
95016 575885 470
314630 668162 509
466742 880643 525
760791 140087 509
614023 491996 470
482158 441835 444
955690 999444 458
742152 815376 468
382982 21550 443
23234 984566 525
104561 399492 443
252611 407909 441
191825 533311 470
240969 424115 449
584873 890740 525
254583 269866 407
744690 147024 509
906226 420729 525
633250 274706 509
236572 836114 509
601274 888478 525
650637 51328 509
683642 565142 509
345022 328736 366
47439 608604 470
232759 469449 449
585928 747184 509
178272 788739 509
482371 506257 426
646142 151394 509
686298 859785 525
860293 648537 525
628652 775510 504
656857 908403 525
348819 172622 443
878962 763961 525
788260 900505 525
751415 833793 468
387946 963268 525
233 628042 509
723450 959161 525
721703 865707 525
128744 495842 449
642788 960917 525
886103 212377 525
840468 751417 525
803880 109246 509
659759 70705 509
950249 174798 525
551241 565867 421
35670 556372 470
416730 930904 525
268767 325969 407
786425 990565 525
951275 975626 458
102934 106250 354
30574 420048 449
639588 461867 509
635420 999456 525
974843 560393 525
670016 358608 509
211328 653763 509
628686 257628 509
847619 185583 525
819733 842857 525
412020 972225 525
237967 557204 470
75464 65726 325
121801 974649 525
627554 597910 509
500932 569388 470
471727 96861 449
916913 451680 525
563747 101916 470
782571 999485 525
635265 233635 509
877572 643955 525
218863 294643 443
127975 626821 509
817567 69405 509
555792 828198 509
260143 101574 443
622732 758933 509
966122 7603 525
478680 809518 509
807255 988095 525
33145 408792 443
982740 711795 525
101630 140450 354
697103 853962 525
76535 216088 383
112039 208724 383
261864 286810 407
130769 910837 525
822597 906227 525
420648 193156 449
26440 640349 509
321577 444160 449
166015 539785 470
66039 950730 525
497148 899211 525
856637 277032 525
831098 237155 509
803681 952746 525
544532 3788 470
150068 247158 443
81694 565776 470
518897 692600 509
5975 861351 525
594443 656604 509
878238 743428 525
900934 376474 525
863701 914489 476
533515 486146 470
572303 520905 452
696840 993275 525
968864 375705 525
980216 88556 525
705541 285788 509
537735 362513 470
734247 137024 509
748748 579550 509
742558 590362 509
